Chapter 5 Results | Hidden Fact of Food Market
…
5.1.2 Vitamins among Different countries

select all vitamins family, energy, countries, nutrition score from the dataset. Australia will be eliminated because the whole vitamin-d and vitamin-e part are missing:

## # A tibble: 66 x 3
## # Groups:   countries_en [11]
##    countries_en   vitamins       val
##    <chr>          <chr>        <dbl>
##  1 Belgium        vitamin.a 0.000468
##  2 Canada         vitamin.a 0.000628
##  3 France         vitamin.a 0.00109 
##  4 Germany        vitamin.a 0.000588
##  5 Italy          vitamin.a 0.000278
##  6 Portugal       vitamin.a 0.000529
##  7 Russia         vitamin.a 0.000623
##  8 Spain          vitamin.a 0.00153 
##  9 Switzerland    vitamin.a 0.000391
## 10 United Kingdom vitamin.a 0.000718
## # ... with 56 more rows
…
